Gbindinnuola - AULA 18
…
# use boxcox

library(MASS)

# creating the insect object

insects <- tibble::as_tibble(InsectSprays)|> 
  dplyr::select(spray, count)
insects

# A tibble: 72 × 2
   spray count
   <fct> <dbl>
 1 A        10
 2 A         7
 3 A        20
 4 A        14
 5 A        14
 6 A        12
 7 A        10
 8 A        23
 9 A        17
10 A        20
# ℹ 62 more rows
…
