Gbindinnuola - AULA 13
…
geom_smooth(se = F, method = "lm")

geom_smooth: na.rm = FALSE, orientation = NA, se = FALSE
stat_smooth: na.rm = FALSE, orientation = NA, se = FALSE, method = lm
position_identity 

estande

# A tibble: 72 × 4
     exp  trat bloco nplants
   <dbl> <dbl> <dbl>   <dbl>
 1     1     0     1      66
 2     1     0     2      72
 3     1     0     3      50
 4     1     0     4      27
 5     1     3     1      68
 6     1     3     2      79
 7     1     3     3      31
 8     1     3     4      32
 9     1     6     1      58
10     1     6     2      56
# ℹ 62 more rows
…
